{
    "Javascript": [
        {
            "id": 1,
            "language": "Javascript",
            "keywords": [
                "random",
                "math"
            ],
            "title": "How to generate a random number in a given range",
            "code": "// Returns a random number(float) between min (inclusive) and max (exclusive) const getRandomNumber = (min, max) => Math.random() * (max - min) + min;getRandomNumber(2, 10)// Returns a random number(int) between min (inclusive) and max (inclusive)const getRandomNumberInclusive =(min, max)=> {min = Math.ceil(min);max = Math.floor(max);return Math.floor(Math.random() * (max - min + 1)) + min;}getRandomNumberInclusive(2, 10);"
        },
        {
            "id": 2,
            "language": "Javascript",
            "keywords": [
                "array",
                "spread"
            ],
            "title": "How to find the difference between two arrays",
            "code": "const difference = (a, b) => {  const setA = new Set(a); const setB = new Set(b); return [...a.filter(x => !setB.has(x)),...b.filter(x => !setA.has(x))]};difference(firstArr, secondArr); //[3,4]console.log('difference',difference(firstArr, secondArr))"
        },
        {
            "id": 3,
            "language": "Javascript",
            "keywords": [
                "array",
                "filter"
            ],
            "title": "Get unique values in an array",
            "code": "const numbers = [1,1,3,2,5,3,4,7,7,7,8];\n const unieqNumbers = numbers.filter((v,i,a) => a.indexOf(v )=== i ) \n console.log(unieqNumbers) //[1,3,2,5,4,7,8]"
        }
    ],
    "CSS": [
        {
            "id": 1,
            "language": "CSS",
            "keywords": [
                "cross-browsing",
                "inline-block"
            ],
            "title": "Cross Browser Inline-Block",
            "code": "li{width: 200px; min-height: 250px; border: 1px solid #000; display: -moz-inline-stack;display: inline-block;vertical-align: top;margin: 5px;zoom: 1;*display: inline;_height: 250px;"
        },
        {
            "id": 2,
            "language": "CSS",
            "keywords": [
                "transform",
                "img"
            ],
            "title": "Flip and image",
            "code": ".flip-horizontally {transform: scaleX(-1);}"
        }
    ],
    "HTML": [
        {
            "id": 1,
            "language": "HTML",
            "keywords": [
                "doctype",
                "template"
            ],
            "title": "Downloadable Files",
            "code": "<a href='/files/adlafjlxjewfasd89asd8f.pdf? download='expenses.pdf'>Download Your Expense Report</a>"
        },
        {
            "id": 2,
            "language": "HTML",
            "keywords": [
                "input",
                "pattern"
            ],
            "title": "Regexp Pattern For Email Validation",
            "code": "<input type='text' title='email' required pattern=\"[^@]+@[^@]+\\.[a-zA-Z]{2,6}\"/>"
        }
    ]
}